5 A predictive modeling case study
…
hotels <-
  read_csv('https://tidymodels.org/start/case-study/hotels.csv') %>%
  mutate_if(is.character, as.factor)
hotels

# A tibble: 50,000 x 23
   hotel lead_time stays_in_weeken stays_in_week_n adults children meal  country
   <fct>     <dbl>            <dbl>            <dbl>  <dbl> <fct>    <fct> <fct>  
 1 City       217                1                3      2 none     BB    DEU    
 2 City         2                0                1      2 none     BB    PRT    
 3 Reso        95                2                5      2 none     BB    GBR    
 4 Reso       143                2                6      2 none     HB    ROU    
 5 Reso       136                1                4      2 none     HB    PRT    
 6 City        67                2                2      2 none     SC    GBR    
 7 Reso        47                0                2      2 children BB    ESP    
 8 City        56                0                3      0 children BB    ESP    
 9 City        80                0                4      2 none     BB    FRA    
10 City         6                2                2      2 children BB    FRA    
#  with 49,990 more rows, and 15 more variables: market_segment <fct>,
#   distribution_channel <fct>, is_repeated_guest <dbl>, previous_cancellations <dbl>,
#   previous_bookings_not_canceled <dbl>, reserved_room_type <fct>,
#   assigned_room_type <fct>, booking_changes <dbl>, deposit_type <fct>,
#   days_in_waiting_list <dbl>, customer_type <fct>, average_daily_rate <dbl>,
#   required_car_parking_spaces <fct>, total_of_special_requests <dbl>,
#   arrival_date <date>
…
