L3.2 Nested resampling
…
sim_data <- function(n) {
  tmp <- mlbench.friedman1(n, sd = 1)
  tmp <- cbind(tmp$x, tmp$y)
  tmp <- as.data.frame(tmp)
  names(tmp)[ncol(tmp)] <- "y"
  as_tibble(tmp)
}

set.seed(9815)
train_dat <- sim_data(100)
large_dat <- sim_data(10^5)

train_dat

# A tibble: 100 x 11
       V1     V2    V3       V4     V5     V6    V7    V8     V9    V10     y
    <dbl>  <dbl> <dbl>    <dbl>  <dbl>  <dbl> <dbl> <dbl>  <dbl>  <dbl> <dbl>
 1 0.195  0.642  0.953 0.796    0.218  0.934  0.199 0.211 0.574  0.196  16.4 
 2 0.228  0.105  0.801 0.687    0.713  0.550  0.445 0.732 0.0861 0.379  12.9 
 3 0.0237 0.0984 0.591 0.273    0.349  0.597  0.988 0.638 0.564  0.980   4.13
 4 0.707  0.855  0.823 0.586    0.568  0.110  0.640 0.925 0.791  0.371  21.7 
 5 0.784  0.284  0.389 0.128    0.648  0.813  0.398 0.525 0.620  0.179  11.6 
 6 0.567  0.998  0.730 0.190    0.586  0.285  0.764 0.278 0.824  0.162  14.8 
 7 0.919  0.891  0.711 0.564    0.0608 0.890  0.899 0.861 0.878  0.0444 12.1 
 8 0.437  0.208  0.454 0.445    0.251  0.546  0.682 0.747 0.947  0.207   7.86
 9 0.385  0.911  0.266 0.000998 0.857  0.172  0.261 0.317 0.543  0.624  14.7 
10 0.641  0.765  0.114 0.0135   0.0287 0.0604 0.718 0.493 0.794  0.237  12.0 
#  with 90 more rows

results <- nested_cv(train_dat, 
                     outside = vfold_cv(repeats = 5),
                     inside = bootstraps(times = 25))
results

# Nested resampling:
#  outer: 10-fold cross-validation repeated 5 times
#  inner: Bootstrap sampling
# A tibble: 50 x 4
   splits          id      id2    inner_resamples  
   <list>          <chr>   <chr>  <list>           
 1 <split [90/10]> Repeat1 Fold01 <tibble [25  2]>
 2 <split [90/10]> Repeat1 Fold02 <tibble [25  2]>
 3 <split [90/10]> Repeat1 Fold03 <tibble [25  2]>
 4 <split [90/10]> Repeat1 Fold04 <tibble [25  2]>
 5 <split [90/10]> Repeat1 Fold05 <tibble [25  2]>
 6 <split [90/10]> Repeat1 Fold06 <tibble [25  2]>
 7 <split [90/10]> Repeat1 Fold07 <tibble [25  2]>
 8 <split [90/10]> Repeat1 Fold08 <tibble [25  2]>
 9 <split [90/10]> Repeat1 Fold09 <tibble [25  2]>
10 <split [90/10]> Repeat1 Fold10 <tibble [25  2]>
#  with 40 more rows

results$inner_resamples[[1]]

# Bootstrap sampling 
# A tibble: 25 x 2
   splits          id         
   <list>          <chr>      
 1 <split [90/33]> Bootstrap01
 2 <split [90/36]> Bootstrap02
 3 <split [90/30]> Bootstrap03
 4 <split [90/30]> Bootstrap04
 5 <split [90/33]> Bootstrap05
 6 <split [90/36]> Bootstrap06
 7 <split [90/36]> Bootstrap07
 8 <split [90/29]> Bootstrap08
 9 <split [90/32]> Bootstrap09
10 <split [90/33]> Bootstrap10
#  with 15 more rows

analysis(results$inner_resamples[[1]]$splits[[1]])

# A tibble: 90 x 11
       V1      V2    V3       V4    V5     V6    V7     V8    V9   V10     y
    <dbl>   <dbl> <dbl>    <dbl> <dbl>  <dbl> <dbl>  <dbl> <dbl> <dbl> <dbl>
 1 0.370  0.303   0.354 0.731    0.978 0.200  0.597 0.310  0.604 0.403 17.0 
 2 0.282  0.383   0.703 0.999    0.930 0.820  0.778 0.512  0.567 0.846 16.0 
 3 0.987  0.293   0.885 0.749    0.333 0.0522 0.787 0.0567 0.857 0.727 21.0 
 4 0.479  0.0908  0.792 0.994    0.130 0.948  0.562 0.724  0.109 0.855 12.0 
 5 0.759  0.00670 0.383 0.0497   0.745 0.508  0.935 0.819  0.752 0.109  3.42
 6 0.473  0.159   0.923 0.270    0.941 0.934  0.814 0.237  0.399 0.165 12.4 
 7 0.0175 0.799   0.825 0.974    0.693 0.709  0.421 0.762  0.666 0.587 16.1 
 8 0.278  0.229   0.894 0.0919   0.148 0.619  0.107 0.219  0.923 0.220  6.61
 9 0.385  0.911   0.266 0.000998 0.857 0.172  0.261 0.317  0.543 0.624 14.7 
10 0.329  0.331   0.540 0.576    0.661 0.991  0.536 0.672  0.294 0.307 12.2 
#  with 80 more rows

analysis(results$inner_resamples[[1]]$splits[[2]])

# A tibble: 90 x 11
       V1      V2    V3      V4    V5     V6     V7    V8    V9   V10     y
    <dbl>   <dbl> <dbl>   <dbl> <dbl>  <dbl>  <dbl> <dbl> <dbl> <dbl> <dbl>
 1 0.634  0.856   0.778 0.341   0.289 0.369  0.607  0.692 0.188 0.958 14.5 
 2 0.329  0.331   0.540 0.576   0.661 0.991  0.536  0.672 0.294 0.307 12.2 
 3 0.0982 0.963   0.728 0.584   0.358 0.0943 0.911  0.911 0.309 0.625 11.6 
 4 0.329  0.331   0.540 0.576   0.661 0.991  0.536  0.672 0.294 0.307 12.2 
 5 0.0237 0.0984  0.591 0.273   0.349 0.597  0.988  0.638 0.564 0.980  4.13
 6 0.554  0.738   0.618 0.359   0.485 0.254  0.0601 0.940 0.930 0.817 17.2 
 7 0.759  0.00670 0.383 0.0497  0.745 0.508  0.935  0.819 0.752 0.109  3.42
 8 0.335  0.855   0.828 0.711   0.974 0.613  0.202  0.902 0.906 0.204 23.2 
 9 0.551  0.164   0.880 0.458   0.341 0.211  0.176  0.599 0.547 0.741 12.0 
10 0.0416 0.763   0.944 0.00436 0.325 0.330  0.359  0.423 0.363 0.859  6.86
#  with 80 more rows

results$splits[[2]]

<Analysis/Assess/Total>
<90/10/100>

results$inner_resamples[[5]]

# Bootstrap sampling 
# A tibble: 25 x 2
   splits          id         
   <list>          <chr>      
 1 <split [90/31]> Bootstrap01
 2 <split [90/33]> Bootstrap02
 3 <split [90/37]> Bootstrap03
 4 <split [90/31]> Bootstrap04
 5 <split [90/32]> Bootstrap05
 6 <split [90/32]> Bootstrap06
 7 <split [90/36]> Bootstrap07
 8 <split [90/34]> Bootstrap08
 9 <split [90/29]> Bootstrap09
10 <split [90/31]> Bootstrap10
#  with 15 more rows
…
