rsample
…
136332024 bytes

obj_size(boots)/nrow(boots)

133,730.2 B

as.numeric(obj_size(boots)/obj_size(LetterRecognition))

[1] 2.528326

boots

# Bootstrap sampling 
# A tibble: 50 x 2
   splits             id         
   <list>             <chr>      
 1 <split [20K/7.3K]> Bootstrap01
 2 <split [20K/7.3K]> Bootstrap02
 3 <split [20K/7.4K]> Bootstrap03
 4 <split [20K/7.4K]> Bootstrap04
 5 <split [20K/7.4K]> Bootstrap05
 6 <split [20K/7.3K]> Bootstrap06
 7 <split [20K/7.3K]> Bootstrap07
 8 <split [20K/7.4K]> Bootstrap08
 9 <split [20K/7.3K]> Bootstrap09
10 <split [20K/7.4K]> Bootstrap10
#  with 40 more rows
…
[1] 7350   17

dim(assessment(boots$splits[[2]]))

[1] 7347   17

Basics

set.seed(8584)
bt_resamples <- bootstraps(mtcars, times = 3)
bt_resamples

# Bootstrap sampling 
# A tibble: 3 x 2
  splits          id        
  <list>          <chr>     
1 <split [32/14]> Bootstrap1
2 <split [32/12]> Bootstrap2
3 <split [32/14]> Bootstrap3

class(bt_resamples)

[1] "bootstraps" "rset"       "tbl_df"     "tbl"       
[5] "data.frame"

first_resample <- bt_resamples$splits[[1]]
first_resample

<Analysis/Assess/Total>
<32/14/32>

as.data.frame(first_resample)

                  mpg cyl  disp  hp drat    wt  qsec vs am
Fiat 128         32.4   4  78.7  66 4.08 2.200 19.47  1  1
Toyota Corolla   33.9   4  71.1  65 4.22 1.835 19.90  1  1
Toyota Corolla.1 33.9   4  71.1  65 4.22 1.835 19.90  1  1
AMC Javelin      15.2   8 304.0 150 3.15 3.435 17.30  0  0
Valiant          18.1   6 225.0 105 2.76 3.460 20.22  1  0
Merc 450SLC      15.2   8 275.8 180 3.07 3.780 18.00  0  0
Porsche 914-2    26.0   4 120.3  91 4.43 2.140 16.70  0  1
AMC Javelin.1    15.2   8 304.0 150 3.15 3.435 17.30  0  0
Dodge Challenger 15.5   8 318.0 150 2.76 3.520 16.87  0  0
                 gear carb
Fiat 128            4    1
Toyota Corolla      4    1
Toyota Corolla.1    4    1
AMC Javelin         3    2
Valiant             3    1
Merc 450SLC         3    3
Porsche 914-2       5    2
AMC Javelin.1       3    2
Dodge Challenger    3    2
 [ reached 'max' / getOption("max.print") -- omitted 23 rows ]
…
Degrees of Freedom: 1469 Total (i.e. Null);  1464 Residual
Null Deviance:      1299 
Residual Deviance: 1234     AIC: 1246

mod_form <- as.formula(Attrition ~ JobSatisfaction + Gender + MonthlyIncome)

set.seed(4622)
rs_obj <- vfold_cv(attrition, v = 10, repeats = 10)
rs_obj

#  10-fold cross-validation repeated 10 times 
# A tibble: 100 x 3
   splits             id       id2   
   <list>             <chr>    <chr> 
 1 <split [1.3K/147]> Repeat01 Fold01
 2 <split [1.3K/147]> Repeat01 Fold02
 3 <split [1.3K/147]> Repeat01 Fold03
 4 <split [1.3K/147]> Repeat01 Fold04
 5 <split [1.3K/147]> Repeat01 Fold05
 6 <split [1.3K/147]> Repeat01 Fold06
 7 <split [1.3K/147]> Repeat01 Fold07
 8 <split [1.3K/147]> Repeat01 Fold08
 9 <split [1.3K/147]> Repeat01 Fold09
10 <split [1.3K/147]> Repeat01 Fold10
#  with 90 more rows
…
example <- holdout_results(rs_obj$splits[[1]], mod_form)
dim(example)

[1] 147  34

dim(assessment(rs_obj$splits[[1]]))

[1] 147  31

example[1:10, setdiff(names(example), names(attrition))]

# A tibble: 10 x 3
   .rownames .fitted correct
   <chr>       <dbl> <lgl>  
 1 11          -1.20 TRUE   
 2 24          -1.78 TRUE   
 3 30          -1.45 TRUE   
 4 39          -1.60 TRUE   
 5 53          -1.54 TRUE   
 6 72          -1.93 TRUE   
 7 73          -3.06 TRUE   
 8 80          -3.28 TRUE   
 9 83          -2.23 TRUE   
10 90          -1.28 FALSE  

splits <- rs_obj$splits[[1]]
mod <- glm(mod_form, data = analysis(splits), family = binomial)
holdout <- assessment(splits)
holdout

res <- broom::augment(mod, newdata = holdout)
res

lvls <- levels(holdout$Attrition)
predictions <- factor(ifelse(res$.fitted >0, lvls[2], lvls[1]), levels = lvls)
predictions

  [1] No No No No No No No No No No No No No No No No No No
 [19] No No No No No No No No No No No No No No No No No No
 [37] No No No No No No No No No No No No No No No No No No
 [55] No No No No No No No No No No No No No No No No No No
 [73] No No No No No No No No No No No No No No No No No No
 [91] No No No No No No No No No No
 [ reached getOption("max.print") -- omitted 47 entries ]
Levels: No Yes

res$correct <- predictions == holdout$Attrition
res[, setdiff(names(example), names(attrition))]

# A tibble: 147 x 3
   .rownames .fitted correct
   <chr>       <dbl> <lgl>  
 1 11          -1.20 TRUE   
 2 24          -1.78 TRUE   
 3 30          -1.45 TRUE   
 4 39          -1.60 TRUE   
 5 53          -1.54 TRUE   
 6 72          -1.93 TRUE   
 7 73          -3.06 TRUE   
 8 80          -3.28 TRUE   
 9 83          -2.23 TRUE   
10 90          -1.28 FALSE  
#  with 137 more rows

library(purrr)
rs_obj$results <- map(rs_obj$splits, holdout_results, mod_form)
rs_obj

#  10-fold cross-validation repeated 10 times 
# A tibble: 100 x 4
   splits             id       id2    results            
   <list>             <chr>    <chr>  <list>             
 1 <split [1.3K/147]> Repeat01 Fold01 <tibble [147  34]>
 2 <split [1.3K/147]> Repeat01 Fold02 <tibble [147  34]>
 3 <split [1.3K/147]> Repeat01 Fold03 <tibble [147  34]>
 4 <split [1.3K/147]> Repeat01 Fold04 <tibble [147  34]>
 5 <split [1.3K/147]> Repeat01 Fold05 <tibble [147  34]>
 6 <split [1.3K/147]> Repeat01 Fold06 <tibble [147  34]>
 7 <split [1.3K/147]> Repeat01 Fold07 <tibble [147  34]>
 8 <split [1.3K/147]> Repeat01 Fold08 <tibble [147  34]>
 9 <split [1.3K/147]> Repeat01 Fold09 <tibble [147  34]>
10 <split [1.3K/147]> Repeat01 Fold10 <tibble [147  34]>
#  with 90 more rows
…
median_diff <- function(splits) {
  x <- analysis(splits)
  median(x$MonthlyIncom[x$Gender == "Female"]) -
    median(x$MonthlyIncome[x$Gender == "Male"])
}

set.seed(353)
bt_resamples <- bootstraps(attrition, times = 500)

bt_resamples$wage_diff <- map_dbl(bt_resamples$splits, median_diff)
bt_resamples

# Bootstrap sampling 
# A tibble: 500 x 3
   splits             id           wage_diff
   <list>             <chr>            <dbl>
 1 <split [1.5K/558]> Bootstrap001      136 
 2 <split [1.5K/528]> Bootstrap002      282.
 3 <split [1.5K/541]> Bootstrap003      470 
 4 <split [1.5K/561]> Bootstrap004     -213 
 5 <split [1.5K/518]> Bootstrap005      453 
 6 <split [1.5K/539]> Bootstrap006      684 
 7 <split [1.5K/542]> Bootstrap007       60 
 8 <split [1.5K/536]> Bootstrap008      286 
 9 <split [1.5K/552]> Bootstrap009      -30 
10 <split [1.5K/517]> Bootstrap010      410 
#  with 490 more rows
…
glm_coefs <- function(splits, ...) {
  mod <- glm(..., data = analysis(splits), family = binomial)
  as.data.frame(t(coef(mod)))
}
bt_resamples$betas <- map(bt_resamples$splits, glm_coefs, mod_form)
bt_resamples

# Bootstrap sampling 
# A tibble: 500 x 4
   splits             id           wage_diff betas          
   <list>             <chr>            <dbl> <list>         
 1 <split [1.5K/558]> Bootstrap001      136  <df[,6] [1  6
 2 <split [1.5K/528]> Bootstrap002      282. <df[,6] [1  6
 3 <split [1.5K/541]> Bootstrap003      470  <df[,6] [1  6
 4 <split [1.5K/561]> Bootstrap004     -213  <df[,6] [1  6
 5 <split [1.5K/518]> Bootstrap005      453  <df[,6] [1  6
 6 <split [1.5K/539]> Bootstrap006      684  <df[,6] [1  6
 7 <split [1.5K/542]> Bootstrap007       60  <df[,6] [1  6
 8 <split [1.5K/536]> Bootstrap008      286  <df[,6] [1  6
 9 <split [1.5K/552]> Bootstrap009      -30  <df[,6] [1  6
10 <split [1.5K/517]> Bootstrap010      410  <df[,6] [1  6
#  with 490 more rows

Keeping tidy

first_resample <- bt_resamples$splits[[1]]
class(first_resample)

[1] "rsplit"     "boot_split"

tidy(first_resample)

# A tibble: 1,470 x 2
     Row Data    
   <int> <chr>   
 1     2 Analysis
 2     3 Analysis
 3     4 Analysis
 4     7 Analysis
 5     9 Analysis
 6    10 Analysis
 7    11 Analysis
 8    13 Analysis
 9    18 Analysis
10    19 Analysis
#  with 1,460 more rows

class(bt_resamples)

[1] "bootstraps" "rset"       "tbl_df"     "tbl"       
[5] "data.frame"

tidy(bt_resamples)

# A tibble: 735,000 x 3
     Row Data     Resample    
   <int> <chr>    <chr>       
 1     1 Analysis Bootstrap002
 2     1 Analysis Bootstrap004
 3     1 Analysis Bootstrap007
 4     1 Analysis Bootstrap008
 5     1 Analysis Bootstrap009
 6     1 Analysis Bootstrap010
 7     1 Analysis Bootstrap011
 8     1 Analysis Bootstrap013
 9     1 Analysis Bootstrap015
10     1 Analysis Bootstrap016
#  with 734,990 more rows

Recipes with rsample

library(AmesHousing)
ames <- make_ames()
ames

# A tibble: 2,930 x 81
   MS_SubClass MS_Zoning Lot_Frontage Lot_Area Street Alley
   <fct>       <fct>            <dbl>    <int> <fct>  <fct>
 1 One_Story_ Resident          141    31770 Pave   No_A
 2 One_Story_ Resident           80    11622 Pave   No_A
 3 One_Story_ Resident           81    14267 Pave   No_A
 4 One_Story_ Resident           93    11160 Pave   No_A
 5 Two_Story_ Resident           74    13830 Pave   No_A
 6 Two_Story_ Resident           78     9978 Pave   No_A
 7 One_Story_ Resident           41     4920 Pave   No_A
 8 One_Story_ Resident           43     5005 Pave   No_A
 9 One_Story_ Resident           39     5389 Pave   No_A
10 Two_Story_ Resident           60     7500 Pave   No_A
#  with 2,920 more rows, and 75 more variables:
#   Lot_Shape <fct>, Land_Contour <fct>, Utilities <fct>,
#   Lot_Config <fct>, Land_Slope <fct>, Neighborhood <fct>,
#   Condition_1 <fct>, Condition_2 <fct>, Bldg_Type <fct>,
#   House_Style <fct>, Overall_Qual <fct>,
#   Overall_Cond <fct>, Year_Built <int>,
#   Year_Remod_Add <int>, Roof_Style <fct>,
#   Roof_Matl <fct>, Exterior_1st <fct>,
#   Exterior_2nd <fct>, Mas_Vnr_Type <fct>,
…
juice(rec_training_set)

# A tibble: 2,930 x 14
   Year_Sold Lot_Area Sale_Price Neighborhood_Co
       <dbl>    <dbl>      <dbl>            <dbl>
 1      1.68    2.70        5.33           -0.317
 2      1.68    0.506       5.02           -0.317
 3      1.68    0.930       5.24           -0.317
 4      1.68    0.423       5.39           -0.317
 5      1.68    0.865       5.28           -0.317
 6      1.68    0.197       5.29           -0.317
 7      1.68   -1.16        5.33           -0.317
 8      1.68   -1.12        5.28           -0.317
 9      1.68   -0.988       5.37           -0.317
10      1.68   -0.364       5.28           -0.317
#  with 2,920 more rows, and 10 more variables:
#   Neighborhood_Old_Town <dbl>,
#   Neighborhood_Edwards <dbl>,
#   Neighborhood_Somerset <dbl>,
#   Neighborhood_Northridge_Heights <dbl>,
#   Neighborhood_Gilbert <dbl>, Neighborhood_Sawyer <dbl>,
#   Neighborhood_other <dbl>, House_Style_One_Story <dbl>,
#   House_Style_Two_Story <dbl>, House_Style_other <dbl>

set.seed(7712)
bt_samples <- bootstraps(ames)
bt_samples

# Bootstrap sampling 
# A tibble: 25 x 2
   splits              id         
   <list>              <chr>      
 1 <split [2.9K/1.1K]> Bootstrap01
 2 <split [2.9K/1.1K]> Bootstrap02
 3 <split [2.9K/1.1K]> Bootstrap03
 4 <split [2.9K/1.1K]> Bootstrap04
 5 <split [2.9K/1.1K]> Bootstrap05
 6 <split [2.9K/1.1K]> Bootstrap06
 7 <split [2.9K/1.1K]> Bootstrap07
 8 <split [2.9K/1.1K]> Bootstrap08
 9 <split [2.9K/1.1K]> Bootstrap09
10 <split [2.9K/1.1K]> Bootstrap10
#  with 15 more rows

bt_samples$splits[[1]]

<Analysis/Assess/Total>
<2930/1095/2930>

bt_samples$recipes <- map(bt_samples$splits, prepper, recipe = rec)
bt_samples

# Bootstrap sampling 
# A tibble: 25 x 3
   splits              id          recipes 
   <list>              <chr>       <list>  
 1 <split [2.9K/1.1K]> Bootstrap01 <recipe>
 2 <split [2.9K/1.1K]> Bootstrap02 <recipe>
 3 <split [2.9K/1.1K]> Bootstrap03 <recipe>
 4 <split [2.9K/1.1K]> Bootstrap04 <recipe>
 5 <split [2.9K/1.1K]> Bootstrap05 <recipe>
 6 <split [2.9K/1.1K]> Bootstrap06 <recipe>
 7 <split [2.9K/1.1K]> Bootstrap07 <recipe>
 8 <split [2.9K/1.1K]> Bootstrap08 <recipe>
 9 <split [2.9K/1.1K]> Bootstrap09 <recipe>
10 <split [2.9K/1.1K]> Bootstrap10 <recipe>
#  with 15 more rows
…
[1] 2930   14

fit_lm <- function(rec_obj, ...)
  lm(..., data = juice(rec_obj, everything()))

bt_samples$lm_mod <- 
  map(
    bt_samples$recipes,
    fit_lm,
    Sale_Price ~ .
  )
bt_samples

# Bootstrap sampling 
# A tibble: 25 x 4
   splits              id          recipes  lm_mod
   <list>              <chr>       <list>   <list>
 1 <split [2.9K/1.1K]> Bootstrap01 <recipe> <lm>  
 2 <split [2.9K/1.1K]> Bootstrap02 <recipe> <lm>  
 3 <split [2.9K/1.1K]> Bootstrap03 <recipe> <lm>  
 4 <split [2.9K/1.1K]> Bootstrap04 <recipe> <lm>  
 5 <split [2.9K/1.1K]> Bootstrap05 <recipe> <lm>  
 6 <split [2.9K/1.1K]> Bootstrap06 <recipe> <lm>  
 7 <split [2.9K/1.1K]> Bootstrap07 <recipe> <lm>  
 8 <split [2.9K/1.1K]> Bootstrap08 <recipe> <lm>  
 9 <split [2.9K/1.1K]> Bootstrap09 <recipe> <lm>  
10 <split [2.9K/1.1K]> Bootstrap10 <recipe> <lm>  
#  with 15 more rows
…
bt_samples$pred <- 
  pmap(
    lst(
      split_obj = bt_samples$splits, 
      rec_obj = bt_samples$recipes, 
      model_obj = bt_samples$lm_mod
    ),
    pred_lm 
  )
bt_samples

# Bootstrap sampling 
# A tibble: 25 x 5
   splits          id         recipes lm_mod pred           
   <list>          <chr>      <list>  <list> <list>         
 1 <split [2.9K/1 Bootstrap <recip <lm>   <tibble [1,095
 2 <split [2.9K/1 Bootstrap <recip <lm>   <tibble [1,082
 3 <split [2.9K/1 Bootstrap <recip <lm>   <tibble [1,072
 4 <split [2.9K/1 Bootstrap <recip <lm>   <tibble [1,077
 5 <split [2.9K/1 Bootstrap <recip <lm>   <tibble [1,074
 6 <split [2.9K/1 Bootstrap <recip <lm>   <tibble [1,088
 7 <split [2.9K/1 Bootstrap <recip <lm>   <tibble [1,076
 8 <split [2.9K/1 Bootstrap <recip <lm>   <tibble [1,068
 9 <split [2.9K/1 Bootstrap <recip <lm>   <tibble [1,062
10 <split [2.9K/1 Bootstrap <recip <lm>   <tibble [1,064
#  with 15 more rows

results <- map_dfr(bt_samples$pred, rmse, Sale_Price, predicted)
results

# A tibble: 25 x 3
   .metric .estimator .estimate
   <chr>   <chr>          <dbl>
 1 rmse    standard       0.132
 2 rmse    standard       0.128
 3 rmse    standard       0.129
 4 rmse    standard       0.123
 5 rmse    standard       0.125
 6 rmse    standard       0.140
 7 rmse    standard       0.129
 8 rmse    standard       0.130
 9 rmse    standard       0.122
10 rmse    standard       0.127
#  with 15 more rows
…
# Will be used to fit the models to different bootstrap data sets:
fit_fun <- function(split, ...) {
  # We could check for convergence, make new parameters, etc.
  nls(nonlin_form, data = analysis(split), ...) %>%
    tidy()
}

set.seed(462)
nlin_bt <-
  bootstraps(O2K, times = 2000, apparent = TRUE) %>%
  mutate(models = map(splits, ~ fit_fun(.x, start = start_vals)))
nlin_bt

# Bootstrap sampling with apparent sample 
# A tibble: 2,001 x 3
   splits          id            models          
   <list>          <chr>         <list>          
 1 <split [36/14]> Bootstrap0001 <tibble [3  5]>
 2 <split [36/13]> Bootstrap0002 <tibble [3  5]>
 3 <split [36/16]> Bootstrap0003 <tibble [3  5]>
 4 <split [36/12]> Bootstrap0004 <tibble [3  5]>
 5 <split [36/16]> Bootstrap0005 <tibble [3  5]>
 6 <split [36/13]> Bootstrap0006 <tibble [3  5]>
 7 <split [36/15]> Bootstrap0007 <tibble [3  5]>
 8 <split [36/16]> Bootstrap0008 <tibble [3  5]>
 9 <split [36/11]> Bootstrap0009 <tibble [3  5]>
10 <split [36/13]> Bootstrap0010 <tibble [3  5]>
#  with 1,991 more rows
…
library(tidyr)
nls_coef <- 
  nlin_bt %>%
  dplyr::select(-splits) %>%
  # Turn it into a tibble by stacking the `models` col
  unnest() %>%
  # Get rid of unneeded columns
  dplyr::select(id, term, estimate) 

`cols` is now required when using unnest().
Please use `cols = c(models)`

nls_coef

# A tibble: 6,003 x 3
   id            term    estimate
   <chr>         <chr>      <dbl>
 1 Bootstrap0001 VO2rest   359.  
 2 Bootstrap0001 VO2peak  1656.  
 3 Bootstrap0001 mu          1.23
 4 Bootstrap0002 VO2rest   358.  
 5 Bootstrap0002 VO2peak  1662.  
 6 Bootstrap0002 mu          1.26
 7 Bootstrap0003 VO2rest   358.  
 8 Bootstrap0003 VO2peak  1647.  
 9 Bootstrap0003 mu          1.22
10 Bootstrap0004 VO2rest   356.  
#  with 5,993 more rows
…
