rsample
…
136332024 bytes

obj_size(boots)/nrow(boots)

133,730.2 B

as.numeric(obj_size(boots)/obj_size(LetterRecognition))

[1] 2.528326

boots

# Bootstrap sampling 
# A tibble: 50 x 2
   splits             id         
   <list>             <chr>      
 1 <split [20K/7.3K]> Bootstrap01
 2 <split [20K/7.3K]> Bootstrap02
 3 <split [20K/7.4K]> Bootstrap03
 4 <split [20K/7.4K]> Bootstrap04
 5 <split [20K/7.4K]> Bootstrap05
 6 <split [20K/7.3K]> Bootstrap06
 7 <split [20K/7.3K]> Bootstrap07
 8 <split [20K/7.4K]> Bootstrap08
 9 <split [20K/7.3K]> Bootstrap09
10 <split [20K/7.4K]> Bootstrap10
#  with 40 more rows
…
[1] 7350   17

dim(assessment(boots$splits[[2]]))

[1] 7347   17

Basics

set.seed(8584)
bt_resamples <- bootstraps(mtcars, times = 3)
bt_resamples

# Bootstrap sampling 
# A tibble: 3 x 2
  splits          id        
  <list>          <chr>     
1 <split [32/14]> Bootstrap1
2 <split [32/12]> Bootstrap2
3 <split [32/14]> Bootstrap3

class(bt_resamples)

[1] "bootstraps" "rset"       "tbl_df"     "tbl"        "data.frame"

first_resample <- bt_resamples$splits[[1]]
first_resample

<Analysis/Assess/Total>
<32/14/32>

as.data.frame(first_resample)

                  mpg cyl  disp  hp drat    wt  qsec vs am gear carb
Fiat 128         32.4   4  78.7  66 4.08 2.200 19.47  1  1    4    1
Toyota Corolla   33.9   4  71.1  65 4.22 1.835 19.90  1  1    4    1
Toyota Corolla.1 33.9   4  71.1  65 4.22 1.835 19.90  1  1    4    1
AMC Javelin      15.2   8 304.0 150 3.15 3.435 17.30  0  0    3    2
Valiant          18.1   6 225.0 105 2.76 3.460 20.22  1  0    3    1
Merc 450SLC      15.2   8 275.8 180 3.07 3.780 18.00  0  0    3    3
Porsche 914-2    26.0   4 120.3  91 4.43 2.140 16.70  0  1    5    2
AMC Javelin.1    15.2   8 304.0 150 3.15 3.435 17.30  0  0    3    2
Dodge Challenger 15.5   8 318.0 150 2.76 3.520 16.87  0  0    3    2
 [ reached 'max' / getOption("max.print") -- omitted 23 rows ]
…
Degrees of Freedom: 1469 Total (i.e. Null);  1464 Residual
Null Deviance:      1299 
Residual Deviance: 1234     AIC: 1246

mod_form <- as.formula(Attrition ~ JobSatisfaction + Gender + MonthlyIncome)

set.seed(4622)
rs_obj <- vfold_cv(attrition, v = 10, repeats = 10)
rs_obj

#  10-fold cross-validation repeated 10 times 
# A tibble: 100 x 3
   splits             id       id2   
   <list>             <chr>    <chr> 
 1 <split [1.3K/147]> Repeat01 Fold01
 2 <split [1.3K/147]> Repeat01 Fold02
 3 <split [1.3K/147]> Repeat01 Fold03
 4 <split [1.3K/147]> Repeat01 Fold04
 5 <split [1.3K/147]> Repeat01 Fold05
 6 <split [1.3K/147]> Repeat01 Fold06
 7 <split [1.3K/147]> Repeat01 Fold07
 8 <split [1.3K/147]> Repeat01 Fold08
 9 <split [1.3K/147]> Repeat01 Fold09
10 <split [1.3K/147]> Repeat01 Fold10
#  with 90 more rows
…
example <- holdout_results(rs_obj$splits[[1]], mod_form)
dim(example)

[1] 147  34

dim(assessment(rs_obj$splits[[1]]))

[1] 147  31

example[1:10, setdiff(names(example), names(attrition))]

# A tibble: 10 x 3
   .rownames .fitted correct
   <chr>       <dbl> <lgl>  
 1 11          -1.20 TRUE   
 2 24          -1.78 TRUE   
 3 30          -1.45 TRUE   
 4 39          -1.60 TRUE   
 5 53          -1.54 TRUE   
 6 72          -1.93 TRUE   
 7 73          -3.06 TRUE   
 8 80          -3.28 TRUE   
 9 83          -2.23 TRUE   
10 90          -1.28 FALSE  

splits <- rs_obj$splits[[1]]
mod <- glm(mod_form, data = analysis(splits), family = binomial)
holdout <- assessment(splits)
holdout

res <- broom::augment(mod, newdata = holdout)
res

lvls <- levels(holdout$Attrition)
predictions <- factor(ifelse(res$.fitted >0, lvls[2], lvls[1]), levels = lvls)
predictions

  [1] No No No No No No No No No No No No No No No No No No No No No No No No No
 [26] No No No No No No No No No No No No No No No No No No No No No No No No No
 [51] No No No No No No No No No No No No No No No No No No No No No No No No No
 [76] No No No No No No No No No No No No No No No No No No No No No No No No No
 [ reached getOption("max.print") -- omitted 47 entries ]
Levels: No Yes

res$correct <- predictions == holdout$Attrition
res[, setdiff(names(example), names(attrition))]

# A tibble: 147 x 3
   .rownames .fitted correct
   <chr>       <dbl> <lgl>  
 1 11          -1.20 TRUE   
 2 24          -1.78 TRUE   
 3 30          -1.45 TRUE   
 4 39          -1.60 TRUE   
 5 53          -1.54 TRUE   
 6 72          -1.93 TRUE   
 7 73          -3.06 TRUE   
 8 80          -3.28 TRUE   
 9 83          -2.23 TRUE   
10 90          -1.28 FALSE  
#  with 137 more rows

library(purrr)
rs_obj$results <- map(rs_obj$splits, holdout_results, mod_form)
rs_obj

#  10-fold cross-validation repeated 10 times 
# A tibble: 100 x 4
   splits             id       id2    results            
   <list>             <chr>    <chr>  <list>             
 1 <split [1.3K/147]> Repeat01 Fold01 <tibble [147  34]>
 2 <split [1.3K/147]> Repeat01 Fold02 <tibble [147  34]>
 3 <split [1.3K/147]> Repeat01 Fold03 <tibble [147  34]>
 4 <split [1.3K/147]> Repeat01 Fold04 <tibble [147  34]>
 5 <split [1.3K/147]> Repeat01 Fold05 <tibble [147  34]>
 6 <split [1.3K/147]> Repeat01 Fold06 <tibble [147  34]>
 7 <split [1.3K/147]> Repeat01 Fold07 <tibble [147  34]>
 8 <split [1.3K/147]> Repeat01 Fold08 <tibble [147  34]>
 9 <split [1.3K/147]> Repeat01 Fold09 <tibble [147  34]>
10 <split [1.3K/147]> Repeat01 Fold10 <tibble [147  34]>
#  with 90 more rows
…
median_diff <- function(splits) {
  x <- analysis(splits)
  median(x$MonthlyIncom[x$Gender == "Female"]) -
    median(x$MonthlyIncome[x$Gender == "Male"])
}

set.seed(353)
bt_resamples <- bootstraps(attrition, times = 500)

bt_resamples$wage_diff <- map_dbl(bt_resamples$splits, median_diff)
bt_resamples

# Bootstrap sampling 
# A tibble: 500 x 3
   splits             id           wage_diff
   <list>             <chr>            <dbl>
 1 <split [1.5K/558]> Bootstrap001      136 
 2 <split [1.5K/528]> Bootstrap002      282.
 3 <split [1.5K/541]> Bootstrap003      470 
 4 <split [1.5K/561]> Bootstrap004     -213 
 5 <split [1.5K/518]> Bootstrap005      453 
 6 <split [1.5K/539]> Bootstrap006      684 
 7 <split [1.5K/542]> Bootstrap007       60 
 8 <split [1.5K/536]> Bootstrap008      286 
 9 <split [1.5K/552]> Bootstrap009      -30 
10 <split [1.5K/517]> Bootstrap010      410 
#  with 490 more rows
…
glm_coefs <- function(splits, ...) {
  mod <- glm(..., data = analysis(splits), family = binomial)
  as.data.frame(t(coef(mod)))
}
bt_resamples$betas <- map(bt_resamples$splits, glm_coefs, mod_form)
bt_resamples

# Bootstrap sampling 
# A tibble: 500 x 4
   splits             id           wage_diff betas           
   <list>             <chr>            <dbl> <list>          
 1 <split [1.5K/558]> Bootstrap001      136  <df[,6] [1  6]>
 2 <split [1.5K/528]> Bootstrap002      282. <df[,6] [1  6]>
 3 <split [1.5K/541]> Bootstrap003      470  <df[,6] [1  6]>
 4 <split [1.5K/561]> Bootstrap004     -213  <df[,6] [1  6]>
 5 <split [1.5K/518]> Bootstrap005      453  <df[,6] [1  6]>
 6 <split [1.5K/539]> Bootstrap006      684  <df[,6] [1  6]>
 7 <split [1.5K/542]> Bootstrap007       60  <df[,6] [1  6]>
 8 <split [1.5K/536]> Bootstrap008      286  <df[,6] [1  6]>
 9 <split [1.5K/552]> Bootstrap009      -30  <df[,6] [1  6]>
10 <split [1.5K/517]> Bootstrap010      410  <df[,6] [1  6]>
#  with 490 more rows

Keeping tidy

first_resample <- bt_resamples$splits[[1]]
class(first_resample)

[1] "rsplit"     "boot_split"

tidy(first_resample)

# A tibble: 1,470 x 2
     Row Data    
   <int> <chr>   
 1     2 Analysis
 2     3 Analysis
 3     4 Analysis
 4     7 Analysis
 5     9 Analysis
 6    10 Analysis
 7    11 Analysis
 8    13 Analysis
 9    18 Analysis
10    19 Analysis
#  with 1,460 more rows

class(bt_resamples)

[1] "bootstraps" "rset"       "tbl_df"     "tbl"        "data.frame"

tidy(bt_resamples)

# A tibble: 735,000 x 3
     Row Data     Resample    
   <int> <chr>    <chr>       
 1     1 Analysis Bootstrap002
 2     1 Analysis Bootstrap004
 3     1 Analysis Bootstrap007
 4     1 Analysis Bootstrap008
 5     1 Analysis Bootstrap009
 6     1 Analysis Bootstrap010
 7     1 Analysis Bootstrap011
 8     1 Analysis Bootstrap013
 9     1 Analysis Bootstrap015
10     1 Analysis Bootstrap016
#  with 734,990 more rows
…
