Basics
…
library(tidyverse)

 Attaching packages  tidyverse 1.3.0 
 ggplot2 3.3.2.9000      purrr   0.3.4     
 tibble  3.0.4           dplyr   1.0.2     
 tidyr   1.1.2           stringr 1.4.0     
 readr   1.4.0           forcats 0.5.0     
 Conflicts  tidyverse_conflicts() 
x dplyr::filter() masks stats::filter()
x dplyr::lag()    masks stats::lag()

data(crickets, package = "modeldata")
crickets

# A tibble: 31 x 3
   species           temp  rate
   <fct>            <dbl> <dbl>
 1 O. exclamationis  20.8  67.9
 2 O. exclamationis  20.8  65.1
 3 O. exclamationis  24    77.3
 4 O. exclamationis  24    78.7
 5 O. exclamationis  24    79.4
 6 O. exclamationis  24    80.4
 7 O. exclamationis  26.2  85.8
 8 O. exclamationis  26.2  86.6
 9 O. exclamationis  26.2  87.5
10 O. exclamationis  26.2  89.1
#  with 21 more rows
…
library(modeldata)
data(ames)
ames

# A tibble: 2,930 x 74
   MS_SubClass MS_Zoning Lot_Frontage Lot_Area Street Alley Lot_Shape Land_Contour
 * <fct>       <fct>            <dbl>    <int> <fct>  <fct> <fct>     <fct>       
 1 One_Story_ Resident          141    31770 Pave   No_A Slightly Lvl         
 2 One_Story_ Resident           80    11622 Pave   No_A Regular   Lvl         
 3 One_Story_ Resident           81    14267 Pave   No_A Slightly Lvl         
 4 One_Story_ Resident           93    11160 Pave   No_A Regular   Lvl         
 5 Two_Story_ Resident           74    13830 Pave   No_A Slightly Lvl         
 6 Two_Story_ Resident           78     9978 Pave   No_A Slightly Lvl         
 7 One_Story_ Resident           41     4920 Pave   No_A Regular   Lvl         
 8 One_Story_ Resident           43     5005 Pave   No_A Slightly HLS         
 9 One_Story_ Resident           39     5389 Pave   No_A Slightly Lvl         
10 Two_Story_ Resident           60     7500 Pave   No_A Regular   Lvl         
#  with 2,920 more rows, and 66 more variables: Utilities <fct>, Lot_Config <fct>,
#   Land_Slope <fct>, Neighborhood <fct>, Condition_1 <fct>, Condition_2 <fct>,
#   Bldg_Type <fct>, House_Style <fct>, Overall_Cond <fct>, Year_Built <int>,
#   Year_Remod_Add <int>, Roof_Style <fct>, Roof_Matl <fct>, Exterior_1st <fct>,
#   Exterior_2nd <fct>, Mas_Vnr_Type <fct>, Mas_Vnr_Area <dbl>, Exter_Cond <fct>,
#   Foundation <fct>, Bsmt_Cond <fct>, Bsmt_Exposure <fct>, BsmtFin_Type_1 <fct>,
#   BsmtFin_SF_1 <dbl>, BsmtFin_Type_2 <fct>, BsmtFin_SF_2 <dbl>, Bsmt_Unf_SF <dbl>,
#   Total_Bsmt_SF <dbl>, Heating <fct>, Heating_QC <fct>, Central_Air <fct>,
#   Electrical <fct>, First_Flr_SF <int>, Second_Flr_SF <int>, Gr_Liv_Area <int>,
…
      role #variables
   outcome          1
 predictor          4

Training data contained 2199 data points and no missing data.

Operations:

Log transformation on Gr_Liv_Area [trained]
Dummy variables from Neighborhood, Bldg_Type [trained]

test_ex <- bake(simple_ames, new_data = NULL)
test_ex

# A tibble: 2,199 x 35
   Gr_Liv_Area Year_Built Sale_Price Neighborhood_Co Neighborhood_Ol Neighborhood_Ed
         <dbl>      <int>      <dbl>            <dbl>            <dbl>            <dbl>
 1        3.22       1960       5.33                0                0                0
 2        2.95       1961       5.02                0                0                0
 3        3.12       1958       5.24                0                0                0
 4        3.21       1997       5.28                0                0                0
 5        3.21       1998       5.29                0                0                0
 6        3.13       2001       5.33                0                0                0
 7        3.11       1992       5.28                0                0                0
 8        3.21       1995       5.37                0                0                0
 9        3.22       1993       5.25                0                0                0
10        3.17       1998       5.26                0                0                0
#  with 2,189 more rows, and 29 more variables: Neighborhood_Somerset <dbl>,
#   Neighborhood_Northridge_Heights <dbl>, Neighborhood_Gilbert <dbl>,
#   Neighborhood_Sawyer <dbl>, Neighborhood_Northwest_Ames <dbl>,
#   Neighborhood_Sawyer_West <dbl>, Neighborhood_Mitchell <dbl>,
#   Neighborhood_Brookside <dbl>, Neighborhood_Crawford <dbl>,
#   Neighborhood_Iowa_DOT_and_Rail_Road <dbl>, Neighborhood_Timberland <dbl>,
#   Neighborhood_Northridge <dbl>, Neighborhood_Stone_Brook <dbl>,
#   Neighborhood_South_and_West_of_Iowa_State_University <dbl>,
#   Neighborhood_Clear_Creek <dbl>, Neighborhood_Meadow_Village <dbl>,
#   Neighborhood_Briardale <dbl>, Neighborhood_Bloomington_Heights <dbl>,
#   Neighborhood_Veenker <dbl>, Neighborhood_Northpark_Villa <dbl>,
#   Neighborhood_Blueste <dbl>, Neighborhood_Greens <dbl>, Neighborhood_Green_Hills <dbl>,
#   Neighborhood_Landmark <dbl>, Neighborhood_Hayden_Lake <dbl>, Bldg_Type_TwoFmCon <dbl>,
#   Bldg_Type_Duplex <dbl>, Bldg_Type_Twnhs <dbl>, Bldg_Type_TwnhsE <dbl>

bake(simple_ames, ames_test, starts_with("Neighborhood_"))

# A tibble: 731 x 28
   Neighborhood_Co Neighborhood_Ol Neighborhood_Ed Neighborhood_So Neighborhood_No
              <dbl>            <dbl>            <dbl>            <dbl>            <dbl>
 1                0                0                0                0                0
 2                0                0                0                0                0
 3                0                0                0                0                0
 4                0                0                0                0                0
 5                0                0                0                0                0
 6                0                0                0                0                1
 7                0                0                0                0                1
 8                0                0                0                0                1
 9                0                0                0                0                1
10                0                0                0                0                0
#  with 721 more rows, and 23 more variables: Neighborhood_Gilbert <dbl>,
#   Neighborhood_Sawyer <dbl>, Neighborhood_Northwest_Ames <dbl>,
#   Neighborhood_Sawyer_West <dbl>, Neighborhood_Mitchell <dbl>,
#   Neighborhood_Brookside <dbl>, Neighborhood_Crawford <dbl>,
#   Neighborhood_Iowa_DOT_and_Rail_Road <dbl>, Neighborhood_Timberland <dbl>,
#   Neighborhood_Northridge <dbl>, Neighborhood_Stone_Brook <dbl>,
#   Neighborhood_South_and_West_of_Iowa_State_University <dbl>,
#   Neighborhood_Clear_Creek <dbl>, Neighborhood_Meadow_Village <dbl>,
#   Neighborhood_Briardale <dbl>, Neighborhood_Bloomington_Heights <dbl>,
#   Neighborhood_Veenker <dbl>, Neighborhood_Northpark_Villa <dbl>,
#   Neighborhood_Blueste <dbl>, Neighborhood_Greens <dbl>, Neighborhood_Green_Hills <dbl>,
#   Neighborhood_Landmark <dbl>, Neighborhood_Hayden_Lake <dbl>

bake(simple_ames, new_data = NULL)

# A tibble: 2,199 x 35
   Gr_Liv_Area Year_Built Sale_Price Neighborhood_Co Neighborhood_Ol Neighborhood_Ed
         <dbl>      <int>      <dbl>            <dbl>            <dbl>            <dbl>
 1        3.22       1960       5.33                0                0                0
 2        2.95       1961       5.02                0                0                0
 3        3.12       1958       5.24                0                0                0
 4        3.21       1997       5.28                0                0                0
 5        3.21       1998       5.29                0                0                0
 6        3.13       2001       5.33                0                0                0
 7        3.11       1992       5.28                0                0                0
 8        3.21       1995       5.37                0                0                0
 9        3.22       1993       5.25                0                0                0
10        3.17       1998       5.26                0                0                0
#  with 2,189 more rows, and 29 more variables: Neighborhood_Somerset <dbl>,
#   Neighborhood_Northridge_Heights <dbl>, Neighborhood_Gilbert <dbl>,
#   Neighborhood_Sawyer <dbl>, Neighborhood_Northwest_Ames <dbl>,
#   Neighborhood_Sawyer_West <dbl>, Neighborhood_Mitchell <dbl>,
#   Neighborhood_Brookside <dbl>, Neighborhood_Crawford <dbl>,
#   Neighborhood_Iowa_DOT_and_Rail_Road <dbl>, Neighborhood_Timberland <dbl>,
#   Neighborhood_Northridge <dbl>, Neighborhood_Stone_Brook <dbl>,
#   Neighborhood_South_and_West_of_Iowa_State_University <dbl>,
#   Neighborhood_Clear_Creek <dbl>, Neighborhood_Meadow_Village <dbl>,
…
lm_fit <- lm(Sale_Price ~ ., data = ames_train_prepped)

glance(lm_fit)

# A tibble: 1 x 12
  r.squared adj.r.squared  sigma statistic p.value    df logLik    AIC    BIC deviance
      <dbl>         <dbl>  <dbl>     <dbl>   <dbl> <dbl>  <dbl>  <dbl>  <dbl>    <dbl>
1     0.822         0.816 0.0757      140.       0    70  2592. -5040. -4630.     12.2
#  with 2 more variables: df.residual <int>, nobs <int>

ames_train_prepped

# A tibble: 2,199 x 71
   Gr_Liv_Area Year_Built Sale_Price Neighborhood_Co Neighborhood_Ol Neighborhood_Ed
         <dbl>      <int>      <dbl>            <dbl>            <dbl>            <dbl>
 1        3.22       1960       5.33                0                0                0
 2        2.95       1961       5.02                0                0                0
 3        3.12       1958       5.24                0                0                0
 4        3.21       1997       5.28                0                0                0
 5        3.21       1998       5.29                0                0                0
 6        3.13       2001       5.33                0                0                0
 7        3.11       1992       5.28                0                0                0
 8        3.21       1995       5.37                0                0                0
 9        3.22       1993       5.25                0                0                0
10        3.17       1998       5.26                0                0                0
#  with 2,189 more rows, and 65 more variables: Neighborhood_Somerset <dbl>,
#   Neighborhood_Northridge_Heights <dbl>, Neighborhood_Gilbert <dbl>,
#   Neighborhood_Sawyer <dbl>, Neighborhood_Northwest_Ames <dbl>,
#   Neighborhood_Sawyer_West <dbl>, Neighborhood_Mitchell <dbl>,
#   Neighborhood_Brookside <dbl>, Neighborhood_Crawford <dbl>,
#   Neighborhood_Iowa_DOT_and_Rail_Road <dbl>, Neighborhood_Timberland <dbl>,
#   Neighborhood_Northridge <dbl>, Neighborhood_Stone_Brook <dbl>,
#   Neighborhood_South_and_West_of_Iowa_State_University <dbl>,
#   Neighborhood_Clear_Creek <dbl>, Neighborhood_Meadow_Village <dbl>,
…
tidy(lm_fit)

# A tibble: 71 x 5
   term                             estimate std.error statistic   p.value
   <chr>                               <dbl>     <dbl>     <dbl>     <dbl>
 1 (Intercept)                     -0.531     0.296      -1.79   7.32e-  2
 2 Gr_Liv_Area                      0.648     0.0161     40.3    1.46e-264
 3 Year_Built                       0.00194   0.000139   13.9    2.69e- 42
 4 Neighborhood_College_Creek      -0.0898    0.0332     -2.71   6.83e-  3
 5 Neighborhood_Old_Town           -0.0516    0.0129     -4.01   6.20e-  5
 6 Neighborhood_Edwards            -0.153     0.0274     -5.57   2.91e-  8
 7 Neighborhood_Somerset            0.0364    0.0189      1.92   5.50e-  2
 8 Neighborhood_Northridge_Heights  0.0984    0.0272      3.61   3.10e-  4
 9 Neighborhood_Gilbert             0.000728  0.0219      0.0333 9.73e-  1
10 Neighborhood_Sawyer             -0.156     0.0263     -5.93   3.59e-  9
#  with 61 more rows
…
# A tibble: 5 x 6
  number operation type     trained skip  id            
   <int> <chr>     <chr>    <lgl>   <lgl> <chr>         
1      1 step      log      TRUE    FALSE log_u4pZz     
2      2 step      other    TRUE    FALSE other_XqiIK   
3      3 step      dummy    TRUE    FALSE dummy_ht3jv   
4      4 step      interact TRUE    FALSE interact_K2XxD
5      5 step      ns       TRUE    FALSE ns_vqtIn      

lm_fit %>% 
  pull_workflow_fit() %>% 
  tidy()

# A tibble: 71 x 5
   term                             estimate std.error statistic   p.value
   <chr>                               <dbl>     <dbl>     <dbl>     <dbl>
 1 (Intercept)                     -0.531     0.296      -1.79   7.32e-  2
 2 Gr_Liv_Area                      0.648     0.0161     40.3    1.46e-264
 3 Year_Built                       0.00194   0.000139   13.9    2.69e- 42
 4 Neighborhood_College_Creek      -0.0898    0.0332     -2.71   6.83e-  3
 5 Neighborhood_Old_Town           -0.0516    0.0129     -4.01   6.20e-  5
 6 Neighborhood_Edwards            -0.153     0.0274     -5.57   2.91e-  8
 7 Neighborhood_Somerset            0.0364    0.0189      1.92   5.50e-  2
 8 Neighborhood_Northridge_Heights  0.0984    0.0272      3.61   3.10e-  4
 9 Neighborhood_Gilbert             0.000728  0.0219      0.0333 9.73e-  1
10 Neighborhood_Sawyer             -0.156     0.0263     -5.93   3.59e-  9
#  with 61 more rows
…
lm_model <- linear_reg() %>% set_engine("lm")

lm_wflow <- 
  workflow() %>% 
  add_model(lm_model) %>% 
  add_recipe(ames_rec)

lm_fit <- fit(lm_wflow, ames_train)

9 Judging model effectiveness

ames_test_res <- predict(lm_fit, new_data = ames_test %>% select(-Sale_Price))
ames_test_res

# A tibble: 731 x 1
   .pred
   <dbl>
 1  5.31
 2  5.30
 3  5.17
 4  5.52
 5  5.09
 6  5.49
 7  5.51
 8  5.43
 9  5.55
10  5.24
#  with 721 more rows

ames_test_res <- bind_cols(ames_test_res, ames_test %>% select(Sale_Price))
ames_test_res

# A tibble: 731 x 2
   .pred Sale_Price
   <dbl>      <dbl>
 1  5.31       5.39
 2  5.30       5.28
 3  5.17       5.27
 4  5.52       5.60
 5  5.09       5.02
 6  5.49       5.49
 7  5.51       5.60
 8  5.43       5.34
 9  5.55       5.51
10  5.24       5.30
#  with 721 more rows
…
ames_test_res %>% 
  metrics(truth = Sale_Price, estimate = .pred)

# A tibble: 3 x 3
  .metric .estimator .estimate
  <chr>   <chr>          <dbl>
1 rmse    standard      0.0808
2 rsq     standard      0.795 
3 mae     standard      0.0558

ames_metrics <- metric_set(rmse, rsq, mae)
ames_test_res %>% 
  ames_metrics(truth = Sale_Price, estimate = .pred)

# A tibble: 3 x 3
  .metric .estimator .estimate
  <chr>   <chr>          <dbl>
1 rmse    standard      0.0808
2 rsq     standard      0.795 
3 mae     standard      0.0558

data(two_class_example)
str(two_class_example)

'data.frame':   500 obs. of  4 variables:
 $ truth    : Factor w/ 2 levels "Class1","Class2": 2 1 2 1 2 1 1 1 2 2 ...
 $ Class1   : num  0.00359 0.67862 0.11089 0.73516 0.01624 ...
 $ Class2   : num  0.996 0.321 0.889 0.265 0.984 ...
 $ predicted: Factor w/ 2 levels "Class1","Class2": 2 1 2 1 2 1 1 1 2 2 ...

two_class_example

    truth       Class1       Class2 predicted
1  Class2 0.0035892426 9.964108e-01    Class2
2  Class1 0.6786210540 3.213789e-01    Class1
3  Class2 0.1108935221 8.891065e-01    Class2
4  Class1 0.7351617031 2.648383e-01    Class1
5  Class2 0.0162399603 9.837600e-01    Class2
6  Class1 0.9992750714 7.249286e-04    Class1
7  Class1 0.9992011490 7.988510e-04    Class1
8  Class1 0.8123519974 1.876480e-01    Class1
9  Class2 0.4570372595 5.429627e-01    Class2
10 Class2 0.0976377342 9.023623e-01    Class2
11 Class2 0.9046454806 9.535452e-02    Class1
12 Class1 0.2979792209 7.020208e-01    Class2
13 Class1 0.9945819554 5.418045e-03    Class1
14 Class2 0.8511497990 1.488502e-01    Class1
15 Class1 0.9999965075 3.492550e-06    Class1
16 Class1 0.9919162773 8.083723e-03    Class1
17 Class2 0.0004250834 9.995749e-01    Class2
18 Class2 0.1149549275 8.850451e-01    Class2
19 Class1 0.8259702531 1.740297e-01    Class1
20 Class2 0.0683678103 9.316322e-01    Class2
21 Class1 0.9350962852 6.490371e-02    Class1
22 Class1 0.9999720122 2.798780e-05    Class1
23 Class2 0.2220960349 7.779040e-01    Class2
24 Class2 0.2076885965 7.923114e-01    Class2
25 Class2 0.0239555849 9.760444e-01    Class2
 [ reached 'max' / getOption("max.print") -- omitted 475 rows ]
…
f_meas(two_class_example, truth, predicted, event_level = "second")

# A tibble: 1 x 3
  .metric .estimator .estimate
  <chr>   <chr>          <dbl>
1 f_meas  binary         0.826

two_class_curve <- roc_curve(two_class_example, truth, Class1)
two_class_curve

# A tibble: 502 x 3
   .threshold specificity sensitivity
        <dbl>       <dbl>       <dbl>
 1 -Inf           0                 1
 2    1.79e-7     0                 1
 3    4.50e-6     0.00413           1
 4    5.81e-6     0.00826           1
 5    5.92e-6     0.0124            1
 6    1.22e-5     0.0165            1
 7    1.40e-5     0.0207            1
 8    1.43e-5     0.0248            1
 9    2.38e-5     0.0289            1
10    3.30e-5     0.0331            1
#  with 492 more rows
…
