Tools for creating effective models
…
ames_folds$splits[[1]] %>% analysis() %>% dim()

[1] 1979   74

vfold_cv(ames_train, v = 10, repeats = 5)

#  10-fold cross-validation repeated 5 times 
# A tibble: 50 x 3
   splits           id      id2   
   <list>           <chr>   <chr> 
 1 <split [2K/220]> Repeat1 Fold01
 2 <split [2K/220]> Repeat1 Fold02
 3 <split [2K/220]> Repeat1 Fold03
 4 <split [2K/220]> Repeat1 Fold04
 5 <split [2K/220]> Repeat1 Fold05
 6 <split [2K/220]> Repeat1 Fold06
 7 <split [2K/220]> Repeat1 Fold07
 8 <split [2K/220]> Repeat1 Fold08
 9 <split [2K/220]> Repeat1 Fold09
10 <split [2K/219]> Repeat1 Fold10
#  with 40 more rows

mc_cv(ames_train)

# Monte Carlo cross-validation (0.75/0.25) with 25 resamples  
# A tibble: 25 x 2
   splits             id        
   <list>             <chr>     
 1 <split [1.6K/549]> Resample01
 2 <split [1.6K/549]> Resample02
 3 <split [1.6K/549]> Resample03
 4 <split [1.6K/549]> Resample04
 5 <split [1.6K/549]> Resample05
 6 <split [1.6K/549]> Resample06
 7 <split [1.6K/549]> Resample07
 8 <split [1.6K/549]> Resample08
 9 <split [1.6K/549]> Resample09
10 <split [1.6K/549]> Resample10
#  with 15 more rows

set.seed(12)
val_set <- validation_split(ames_train, prop = 3/4)
val_set

# Validation Set Split (0.75/0.25)  
# A tibble: 1 x 2
  splits             id        
  <list>             <chr>     
1 <split [1.6K/549]> validation

analysis(val_set$splits[[1]])

# A tibble: 1,650 x 74
   MS_SubClass MS_Zoning Lot_Frontage Lot_Area Street Alley Lot_Shape Land_Contour
   <fct>       <fct>            <dbl>    <int> <fct>  <fct> <fct>     <fct>       
 1 One_Story_ Resident           80    11622 Pave   No_A Regular   Lvl         
 2 Two_Story_ Resident           74    13830 Pave   No_A Slightly Lvl         
 3 Two_Story_ Resident           78     9978 Pave   No_A Slightly Lvl         
 4 One_Story_ Resident           41     4920 Pave   No_A Regular   Lvl         
 5 One_Story_ Resident           43     5005 Pave   No_A Slightly HLS         
 6 One_Story_ Resident           39     5389 Pave   No_A Slightly Lvl         
 7 Two_Story_ Resident           75    10000 Pave   No_A Slightly Lvl         
 8 Two_Story_ Resident           63     8402 Pave   No_A Slightly Lvl         
 9 One_Story_ Resident           85    10176 Pave   No_A Regular   Lvl         
10 One_Story_ Resident            0     6820 Pave   No_A Slightly Lvl         
#  with 1,640 more rows, and 66 more variables: Utilities <fct>,
#   Lot_Config <fct>, Land_Slope <fct>, Neighborhood <fct>, Condition_1 <fct>,
#   Condition_2 <fct>, Bldg_Type <fct>, House_Style <fct>, Overall_Cond <fct>,
#   Year_Built <int>, Year_Remod_Add <int>, Roof_Style <fct>, Roof_Matl <fct>,
#   Exterior_1st <fct>, Exterior_2nd <fct>, Mas_Vnr_Type <fct>,
#   Mas_Vnr_Area <dbl>, Exter_Cond <fct>, Foundation <fct>, Bsmt_Cond <fct>,
#   Bsmt_Exposure <fct>, BsmtFin_Type_1 <fct>, BsmtFin_SF_1 <dbl>,
#   BsmtFin_Type_2 <fct>, BsmtFin_SF_2 <dbl>, Bsmt_Unf_SF <dbl>,
#   Total_Bsmt_SF <dbl>, Heating <fct>, Heating_QC <fct>, Central_Air <fct>,
#   Electrical <fct>, First_Flr_SF <int>, Second_Flr_SF <int>, Gr_Liv_Area <int>,
#   Bsmt_Full_Bath <dbl>, Bsmt_Half_Bath <dbl>, Full_Bath <int>, Half_Bath <int>,
#   Bedroom_AbvGr <int>, Kitchen_AbvGr <int>, TotRms_AbvGrd <int>,
#   Functional <fct>, Fireplaces <int>, Garage_Type <fct>, Garage_Finish <fct>,
#   Garage_Cars <dbl>, Garage_Area <dbl>, Garage_Cond <fct>, Paved_Drive <fct>,
#   Wood_Deck_SF <int>, Open_Porch_SF <int>, Enclosed_Porch <int>,
#   Three_season_porch <int>, Screen_Porch <int>, Pool_Area <int>, Pool_QC <fct>,
#   Fence <fct>, Misc_Feature <fct>, Misc_Val <int>, Mo_Sold <int>,
#   Year_Sold <int>, Sale_Type <fct>, Sale_Condition <fct>, Sale_Price <dbl>,
#   Longitude <dbl>, Latitude <dbl>

assessment(val_set$splits[[1]])

# A tibble: 549 x 74
   MS_SubClass MS_Zoning Lot_Frontage Lot_Area Street Alley Lot_Shape Land_Contour
   <fct>       <fct>            <dbl>    <int> <fct>  <fct> <fct>     <fct>       
 1 One_Story_ Resident          141    31770 Pave   No_A Slightly Lvl         
 2 One_Story_ Resident           81    14267 Pave   No_A Slightly Lvl         
 3 Two_Story_ Floating            0     7500 Pave   No_A Regular   Lvl         
 4 One_Story_ Resident           26     5858 Pave   No_A Slightly Lvl         
 5 One_Story_ Resident           24     2280 Pave   No_A Regular   Lvl         
 6 Two_Story_ Resident           24     2280 Pave   No_A Regular   Lvl         
 7 One_Story_ Resident           79    14122 Pave   No_A Slightly Lvl         
 8 One_Story_ Resident           44     6371 Pave   No_A Slightly Lvl         
 9 Two_Story_ Resident           36     2628 Pave   No_A Regular   Lvl         
10 Split_or_M Resident           67    13300 Pave   No_A Slightly Lvl         
#  with 539 more rows, and 66 more variables: Utilities <fct>, Lot_Config <fct>,
#   Land_Slope <fct>, Neighborhood <fct>, Condition_1 <fct>, Condition_2 <fct>,
#   Bldg_Type <fct>, House_Style <fct>, Overall_Cond <fct>, Year_Built <int>,
#   Year_Remod_Add <int>, Roof_Style <fct>, Roof_Matl <fct>, Exterior_1st <fct>,
#   Exterior_2nd <fct>, Mas_Vnr_Type <fct>, Mas_Vnr_Area <dbl>, Exter_Cond <fct>,
#   Foundation <fct>, Bsmt_Cond <fct>, Bsmt_Exposure <fct>, BsmtFin_Type_1 <fct>,
#   BsmtFin_SF_1 <dbl>, BsmtFin_Type_2 <fct>, BsmtFin_SF_2 <dbl>,
#   Bsmt_Unf_SF <dbl>, Total_Bsmt_SF <dbl>, Heating <fct>, Heating_QC <fct>,
#   Central_Air <fct>, Electrical <fct>, First_Flr_SF <int>, Second_Flr_SF <int>,
…
collect_metrics(rf_res, summarize = FALSE) %>% 
  filter(.metric == "rmse") %>% 
  summarize(mean(.estimate))

# A tibble: 1 x 1
  `mean(.estimate)`
              <dbl>
1            0.0709

assess_res <- collect_predictions(rf_res, summarize = TRUE)
assess_res

# A tibble: 2,199 x 4
    .row Sale_Price .config              .pred
   <int>      <dbl> <chr>                <dbl>
 1     1       5.33 Preprocessor1_Model1  5.21
 2     2       5.02 Preprocessor1_Model1  5.10
 3     3       5.24 Preprocessor1_Model1  5.22
 4     4       5.28 Preprocessor1_Model1  5.28
 5     5       5.29 Preprocessor1_Model1  5.28
 6     6       5.33 Preprocessor1_Model1  5.31
 7     7       5.28 Preprocessor1_Model1  5.28
 8     8       5.37 Preprocessor1_Model1  5.38
 9     9       5.25 Preprocessor1_Model1  5.26
10    10       5.26 Preprocessor1_Model1  5.25
#  with 2,189 more rows
…
lm_res$.extracts[[1]]

# A tibble: 1 x 2
  .extracts         .config             
  <list>            <chr>               
1 <tibble [71  5]> Preprocessor1_Model1

lm_res$.extracts[[1]][[1]]

[[1]]
# A tibble: 71 x 5
   term                             estimate  std.error statistic   p.value
   <chr>                               <dbl>      <dbl>     <dbl>     <dbl>
 1 (Intercept)                      1.00     0.321          3.12  1.85e-  3
 2 Gr_Liv_Area                      0.000168 0.00000481    35.0   2.09e-207
 3 Year_Built                       0.00203  0.000149      13.6   4.07e- 40
 4 Neighborhood_College_Creek      -0.0779   0.0356        -2.19  2.89e-  2
 5 Neighborhood_Old_Town           -0.0600   0.0138        -4.36  1.37e-  5
 6 Neighborhood_Edwards            -0.149    0.0291        -5.13  3.26e-  7
 7 Neighborhood_Somerset            0.0500   0.0203         2.46  1.39e-  2
 8 Neighborhood_Northridge_Heights  0.110    0.0292         3.77  1.71e-  4
 9 Neighborhood_Gilbert             0.0132   0.0235         0.560 5.76e-  1
10 Neighborhood_Sawyer             -0.148    0.0279        -5.30  1.27e-  7
#  with 61 more rows
…
