tune
…
ames_res$.metrics[[1]]

# A tibble: 162 x 6
   `long df` `lat df` .metric .estimator .estimate .config              
       <dbl>    <dbl> <chr>   <chr>          <dbl> <chr>                
 1         2        2 rmse    standard       0.115 Preprocessor01_Model1
 2         2        2 rsq     standard       0.625 Preprocessor01_Model1
 3         4        2 rmse    standard       0.115 Preprocessor02_Model1
 4         4        2 rsq     standard       0.624 Preprocessor02_Model1
 5         6        2 rmse    standard       0.113 Preprocessor03_Model1
 6         6        2 rsq     standard       0.633 Preprocessor03_Model1
 7         8        2 rmse    standard       0.113 Preprocessor04_Model1
 8         8        2 rsq     standard       0.638 Preprocessor04_Model1
 9        10        2 rmse    standard       0.113 Preprocessor05_Model1
10        10        2 rsq     standard       0.637 Preprocessor05_Model1
#  with 152 more rows

estimates <- collect_metrics(ames_res)
estimates

# A tibble: 162 x 8
   `long df` `lat df` .metric .estimator  mean     n std_err .config              
       <dbl>    <dbl> <chr>   <chr>      <dbl> <int>   <dbl> <chr>                
 1         2        2 rmse    standard   0.102    10 0.00243 Preprocessor01_Model1
 2         2        2 rsq     standard   0.674    10 0.0109  Preprocessor01_Model1
 3         4        2 rmse    standard   0.102    10 0.00242 Preprocessor02_Model1
 4         4        2 rsq     standard   0.675    10 0.0108  Preprocessor02_Model1
 5         6        2 rmse    standard   0.101    10 0.00241 Preprocessor03_Model1
 6         6        2 rsq     standard   0.681    10 0.0105  Preprocessor03_Model1
 7         8        2 rmse    standard   0.100    10 0.00246 Preprocessor04_Model1
 8         8        2 rsq     standard   0.685    10 0.0110  Preprocessor04_Model1
 9        10        2 rmse    standard   0.100    10 0.00243 Preprocessor05_Model1
10        10        2 rsq     standard   0.685    10 0.0107  Preprocessor05_Model1
#  with 152 more rows

rmse_vals <-
  estimates %>% 
  filter(.metric == "rmse") %>% 
  arrange(mean)
rmse_vals

# A tibble: 81 x 8
   `long df` `lat df` .metric .estimator   mean     n std_err .config             
       <dbl>    <dbl> <chr>   <chr>       <dbl> <int>   <dbl> <chr>               
 1        16       12 rmse    standard   0.0961    10 0.00226 Preprocessor53_Mode
 2        16       18 rmse    standard   0.0961    10 0.00228 Preprocessor80_Mode
 3        16        8 rmse    standard   0.0962    10 0.00223 Preprocessor35_Mode
 4        16       10 rmse    standard   0.0962    10 0.00225 Preprocessor44_Mode
 5        18       12 rmse    standard   0.0963    10 0.00234 Preprocessor54_Mode
 6        12       12 rmse    standard   0.0963    10 0.00235 Preprocessor51_Mode
 7        16       16 rmse    standard   0.0963    10 0.00224 Preprocessor71_Mode
 8        18       18 rmse    standard   0.0963    10 0.00235 Preprocessor81_Mode
 9        14       12 rmse    standard   0.0963    10 0.00234 Preprocessor52_Mode
10        16       14 rmse    standard   0.0963    10 0.00221 Preprocessor62_Mode
#  with 71 more rows
…
collect_metrics(knn_search) %>% 
  filter(.metric == "rmse") %>% 
  arrange(mean)

# A tibble: 25 x 11
   neighbors weight_func `long df` `lat df` .metric .estimator   mean     n
       <int> <chr>           <int>    <int> <chr>   <chr>       <dbl> <int>
 1         8 triangular          8        5 rmse    standard   0.0823    10
 2        10 triangular          8        5 rmse    standard   0.0824    10
 3         9 triangular          9        6 rmse    standard   0.0831    10
 4         9 inv                 7        6 rmse    standard   0.0831    10
 5         7 inv                 9        5 rmse    standard   0.0833    10
 6         6 triangular          8        7 rmse    standard   0.0834    10
 7         8 gaussian            8        5 rmse    standard   0.0837    10
 8        12 inv                 8        6 rmse    standard   0.0838    10
 9         8 triangular          5       10 rmse    standard   0.0839    10
10         9 triangular          8        2 rmse    standard   0.0847    10
#  with 15 more rows, and 3 more variables: std_err <dbl>, .config <chr>,
#   .iter <int>
…
